<svg xmlns="http://www.w3.org/2000/svg" id="graph-div" width="100%" height="100%" aria-roledescription="classDiagram" style="max-width:100%" viewBox="0 0 1090.708 1760">
  <style>
    @import url(https://cdnjs.cloudflare.com/ajax/libs/font-awesome/6.5.0/css/all.min.css);
  </style>
  <style>
    #graph-div{fill:#333}#graph-div .edge-pattern-solid{stroke-dasharray:0}#graph-div .marker{fill:#333;stroke:#333}#graph-div,#graph-div svg{font-family:&quot;trebuchet ms&quot;,verdana,arial,sans-serif;font-size:16px}#graph-div .edgeLabel,#graph-div .nodeLabel{color:#131300}#graph-div .edgeLabel .label span{background:#ececff}#graph-div .classTitle{font-weight:bolder}#graph-div .node circle,#graph-div .node path{fill:#ececff;stroke:#9370db;stroke-width:1px}#graph-div .divider{stroke:#9370db;stroke-width:1}#graph-div .relation{stroke:#333;stroke-width:1;fill:none}#graph-div .composition,#graph-div .dependency{fill:#333!important;stroke:#333!important;stroke-width:1}#graph-div .aggregation,#graph-div .extension,#graph-div .lollipop{fill:transparent!important;stroke:#333!important;stroke-width:1}#graph-div .lollipop{fill:#ececff!important}#graph-div :root{--mermaid-font-family:&quot;trebuchet ms&quot;,verdana,arial,sans-serif}
  </style>
  <defs>
    <marker id="graph-div_classDiagram-aggregationStart" class="marker aggregation classDiagram" markerHeight="240" markerWidth="190" orient="auto" refX="18" refY="7">
      <path d="m18 7-9 6-8-6 8-6Z"/>
    </marker>
  </defs>
  <defs>
    <marker id="graph-div_classDiagram-aggregationEnd" class="marker aggregation classDiagram" markerHeight="28" markerWidth="20" orient="auto" refX="1" refY="7">
      <path d="m18 7-9 6-8-6 8-6Z"/>
    </marker>
  </defs>
  <defs>
    <marker id="graph-div_classDiagram-extensionStart" class="marker extension classDiagram" markerHeight="240" markerWidth="190" orient="auto" refX="18" refY="7">
      <path d="m1 7 17 6V1Z"/>
    </marker>
  </defs>
  <defs>
    <marker id="graph-div_classDiagram-extensionEnd" class="marker extension classDiagram" markerHeight="28" markerWidth="20" orient="auto" refX="1" refY="7">
      <path d="M1 1v12l17-6Z"/>
    </marker>
  </defs>
  <defs>
    <marker id="graph-div_classDiagram-compositionStart" class="marker composition classDiagram" markerHeight="240" markerWidth="190" orient="auto" refX="18" refY="7">
      <path d="m18 7-9 6-8-6 8-6Z"/>
    </marker>
  </defs>
  <defs>
    <marker id="graph-div_classDiagram-compositionEnd" class="marker composition classDiagram" markerHeight="28" markerWidth="20" orient="auto" refX="1" refY="7">
      <path d="m18 7-9 6-8-6 8-6Z"/>
    </marker>
  </defs>
  <defs>
    <marker id="graph-div_classDiagram-dependencyStart" class="marker dependency classDiagram" markerHeight="240" markerWidth="190" orient="auto" refX="6" refY="7">
      <path d="m5 7 4 6-8-6 8-6Z"/>
    </marker>
  </defs>
  <defs>
    <marker id="graph-div_classDiagram-dependencyEnd" class="marker dependency classDiagram" markerHeight="28" markerWidth="20" orient="auto" refX="13" refY="7">
      <path d="m18 7-9 6 5-6-5-6Z"/>
    </marker>
  </defs>
  <defs>
    <marker id="graph-div_classDiagram-lollipopStart" class="marker lollipop classDiagram" markerHeight="240" markerWidth="190" orient="auto" refX="13" refY="7">
      <circle cx="7" cy="7" r="6" fill="transparent" stroke="#000"/>
    </marker>
  </defs>
  <defs>
    <marker id="graph-div_classDiagram-lollipopEnd" class="marker lollipop classDiagram" markerHeight="240" markerWidth="190" orient="auto" refX="1" refY="7">
      <circle cx="7" cy="7" r="6" fill="transparent" stroke="#000"/>
    </marker>
  </defs>
  <g class="root">
    <g class="edgePaths">
      <path id="id1" fill="none" marker-start="url(#graph-div_classDiagram-extensionStart)" d="m287.251 927.228-.702 1.462c-.701 1.462-2.104 4.386-2.806 70.681-.701 66.296-.701 195.962-.701 260.796V1325" class="edge-pattern-solid relation"/>
      <path id="id2" fill="none" marker-start="url(#graph-div_classDiagram-extensionStart)" d="m736.133 927.228.701 1.462c.702 1.462 2.105 4.386 2.806 10.015.702 5.628.702 13.962.702 18.128V961" class="edge-pattern-solid relation"/>
    </g>
    <g class="edgeLabels">
      <g class="edgeLabel">
        <foreignObject width="0" height="0" class="label">
          <div xmlns="http://www.w3.org/1999/xhtml" display="inline-block" style="white-space:nowrap">
            <span class="edgeLabel"/>
          </div>
        </foreignObject>
      </g>
      <g class="edgeLabel">
        <foreignObject width="0" height="0" class="label">
          <div xmlns="http://www.w3.org/1999/xhtml" display="inline-block" style="white-space:nowrap">
            <span class="edgeLabel"/>
          </div>
        </foreignObject>
      </g>
    </g>
    <g class="nodes">
      <g id="classId-Object-95" class="node default">
        <path d="M8 400h204.617v119H8z" class="outer title-state"/>
        <path d="M8 436h204.616M8 452h204.616" class="divider"/>
        <g class="label" transform="translate(110.308 459.5)">
          <foreignObject width="0" height="0">
            <div xmlns="http://www.w3.org/1999/xhtml" display="inline-block" style="white-space:nowrap">
              <span class="nodeLabel"/>
            </div>
          </foreignObject>
          <foreignObject width="50.15" height="24" class="classTitle" transform="translate(-25.075 -52)">
            <div xmlns="http://www.w3.org/1999/xhtml" display="inline-block" style="white-space:nowrap">
              <span class="nodeLabel">
                Object
              </span>
            </div>
          </foreignObject>
          <foreignObject width="112.817" height="24" transform="translate(-94.808)">
            <div xmlns="http://www.w3.org/1999/xhtml" display="inline-block" style="white-space:nowrap">
              <span class="nodeLabel">
                +int hashCode()
              </span>
            </div>
          </foreignObject>
          <foreignObject width="189.617" height="24" transform="translate(-94.808 28)">
            <div xmlns="http://www.w3.org/1999/xhtml" display="inline-block" style="white-space:nowrap">
              <span class="nodeLabel">
                +boolean equals(Object o)
              </span>
            </div>
          </foreignObject>
        </g>
      </g>
      <g id="classId-Map-96" class="node default">
        <path d="M262.617 8h498.15v903h-498.15z" class="outer title-state"/>
        <path d="M262.617 72h498.15m-498.15 16h498.15" class="divider"/>
        <g class="label" transform="translate(511.692 459.5)">
          <foreignObject width="82.233" height="24" transform="translate(-41.117 -444)">
            <div xmlns="http://www.w3.org/1999/xhtml" display="inline-block" style="white-space:nowrap">
              <span class="nodeLabel">
                «Interface»
              </span>
            </div>
          </foreignObject>
          <foreignObject width="79.05" height="24" class="classTitle" transform="translate(-39.525 -416)">
            <div xmlns="http://www.w3.org/1999/xhtml" display="inline-block" style="white-space:nowrap">
              <span class="nodeLabel">
                Map&lt;K, V&gt;
              </span>
            </div>
          </foreignObject>
          <foreignObject width="90.85" height="24" transform="translate(-241.575 -364)">
            <div xmlns="http://www.w3.org/1999/xhtml" display="inline-block" style="white-space:nowrap">
              <span class="nodeLabel">
                +void clear()
              </span>
            </div>
          </foreignObject>
          <foreignObject width="419.35" height="24" transform="translate(-241.575 -336)">
            <div xmlns="http://www.w3.org/1999/xhtml" display="inline-block" style="white-space:nowrap">
              <span class="nodeLabel">
                +default V compute(K key, BiFunction remappingFunction)
              </span>
            </div>
          </foreignObject>
          <foreignObject width="449.817" height="24" transform="translate(-241.575 -308)">
            <div xmlns="http://www.w3.org/1999/xhtml" display="inline-block" style="white-space:nowrap">
              <span class="nodeLabel">
                +default V computeIfAbsent(K key, Function mappingFunction)
              </span>
            </div>
          </foreignObject>
          <foreignObject width="483.15" height="24" transform="translate(-241.575 -280)">
            <div xmlns="http://www.w3.org/1999/xhtml" display="inline-block" style="white-space:nowrap">
              <span class="nodeLabel">
                +default V computeIfPresent(K key, BiFunction remappingFunction)
              </span>
            </div>
          </foreignObject>
          <foreignObject width="244.85" height="24" transform="translate(-241.575 -252)">
            <div xmlns="http://www.w3.org/1999/xhtml" display="inline-block" style="white-space:nowrap">
              <span class="nodeLabel">
                +boolean containsKey(Object key)
              </span>
            </div>
          </foreignObject>
          <foreignObject width="272" height="24" transform="translate(-241.575 -224)">
            <div xmlns="http://www.w3.org/1999/xhtml" display="inline-block" style="white-space:nowrap">
              <span class="nodeLabel">
                +boolean containsValue(Object value)
              </span>
            </div>
          </foreignObject>
          <foreignObject width="253.867" height="24" transform="translate(-241.575 -196)">
            <div xmlns="http://www.w3.org/1999/xhtml" display="inline-block" style="white-space:nowrap">
              <span class="nodeLabel">
                +static  Map&lt;K,V&gt; copyOf(Map map)
              </span>
            </div>
          </foreignObject>
          <foreignObject width="276.217" height="24" transform="translate(-241.575 -168)">
            <div xmlns="http://www.w3.org/1999/xhtml" display="inline-block" style="white-space:nowrap">
              <span class="nodeLabel">
                +static  Map.Entry&lt;K,V&gt; entry(K k, V v)
              </span>
            </div>
          </foreignObject>
          <foreignObject width="108.467" height="24" transform="translate(-241.575 -140)">
            <div xmlns="http://www.w3.org/1999/xhtml" display="inline-block" style="white-space:nowrap">
              <span class="nodeLabel">
                +Set entrySet()
              </span>
            </div>
          </foreignObject>
          <foreignObject width="299.183" height="24" transform="translate(-241.575 -112)">
            <div xmlns="http://www.w3.org/1999/xhtml" display="inline-block" style="white-space:nowrap">
              <span class="nodeLabel">
                +default void forEach(BiConsumer action)
              </span>
            </div>
          </foreignObject>
          <foreignObject width="135.55" height="24" transform="translate(-241.575 -84)">
            <div xmlns="http://www.w3.org/1999/xhtml" display="inline-block" style="white-space:nowrap">
              <span class="nodeLabel">
                +V get(Object key)
              </span>
            </div>
          </foreignObject>
          <foreignObject width="375.317" height="24" transform="translate(-241.575 -56)">
            <div xmlns="http://www.w3.org/1999/xhtml" display="inline-block" style="white-space:nowrap">
              <span class="nodeLabel">
                +default V getOrDefault(Object key, V defaultValue)
              </span>
            </div>
          </foreignObject>
          <foreignObject width="137.7" height="24" transform="translate(-241.575 -28)">
            <div xmlns="http://www.w3.org/1999/xhtml" display="inline-block" style="white-space:nowrap">
              <span class="nodeLabel">
                +boolean isEmpty()
              </span>
            </div>
          </foreignObject>
          <foreignObject width="121.2" height="24" transform="translate(-241.575)">
            <div xmlns="http://www.w3.org/1999/xhtml" display="inline-block" style="white-space:nowrap">
              <span class="nodeLabel">
                +Set&lt;K&gt; keySet()
              </span>
            </div>
          </foreignObject>
          <foreignObject width="465.167" height="24" transform="translate(-241.575 28)">
            <div xmlns="http://www.w3.org/1999/xhtml" display="inline-block" style="white-space:nowrap">
              <span class="nodeLabel">
                +default V merge(K key, V value, BiFunction remappingFunction)
              </span>
            </div>
          </foreignObject>
          <foreignObject width="154.283" height="24" transform="translate(-241.575 56)">
            <div xmlns="http://www.w3.org/1999/xhtml" display="inline-block" style="white-space:nowrap">
              <span class="nodeLabel">
                +static  Map&lt;K,V&gt; of()
              </span>
            </div>
          </foreignObject>
          <foreignObject width="225.9" height="24" transform="translate(-241.575 84)">
            <div xmlns="http://www.w3.org/1999/xhtml" display="inline-block" style="white-space:nowrap">
              <span class="nodeLabel">
                +static  Map&lt;K,V&gt; of(K k1, V v1)
              </span>
            </div>
          </foreignObject>
          <foreignObject width="353.333" height="24" transform="translate(-241.575 112)">
            <div xmlns="http://www.w3.org/1999/xhtml" display="inline-block" style="white-space:nowrap">
              <span class="nodeLabel">
                +static  Map&lt;K,V&gt; of(K k1, V v1, ..., K k10, V v10)
              </span>
            </div>
          </foreignObject>
          <foreignObject width="346.617" height="24" transform="translate(-241.575 140)">
            <div xmlns="http://www.w3.org/1999/xhtml" display="inline-block" style="white-space:nowrap">
              <span class="nodeLabel">
                +static  Map&lt;K,V&gt; ofEntries(Map.Entry... entries)
              </span>
            </div>
          </foreignObject>
          <foreignObject width="158.5" height="24" transform="translate(-241.575 168)">
            <div xmlns="http://www.w3.org/1999/xhtml" display="inline-block" style="white-space:nowrap">
              <span class="nodeLabel">
                +V put(K key, V value)
              </span>
            </div>
          </foreignObject>
          <foreignObject width="144.517" height="24" transform="translate(-241.575 196)">
            <div xmlns="http://www.w3.org/1999/xhtml" display="inline-block" style="white-space:nowrap">
              <span class="nodeLabel">
                +void putAll(Map m)
              </span>
            </div>
          </foreignObject>
          <foreignObject width="274.133" height="24" transform="translate(-241.575 224)">
            <div xmlns="http://www.w3.org/1999/xhtml" display="inline-block" style="white-space:nowrap">
              <span class="nodeLabel">
                +default V putIfAbsent(K key, V value)
              </span>
            </div>
          </foreignObject>
          <foreignObject width="165.817" height="24" transform="translate(-241.575 252)">
            <div xmlns="http://www.w3.org/1999/xhtml" display="inline-block" style="white-space:nowrap">
              <span class="nodeLabel">
                +V remove(Object key)
              </span>
            </div>
          </foreignObject>
          <foreignObject width="370.267" height="24" transform="translate(-241.575 280)">
            <div xmlns="http://www.w3.org/1999/xhtml" display="inline-block" style="white-space:nowrap">
              <span class="nodeLabel">
                +default boolean remove(Object key, Object value)
              </span>
            </div>
          </foreignObject>
          <foreignObject width="244.717" height="24" transform="translate(-241.575 308)">
            <div xmlns="http://www.w3.org/1999/xhtml" display="inline-block" style="white-space:nowrap">
              <span class="nodeLabel">
                +default V replace(K key, V value)
              </span>
            </div>
          </foreignObject>
          <foreignObject width="407.55" height="24" transform="translate(-241.575 336)">
            <div xmlns="http://www.w3.org/1999/xhtml" display="inline-block" style="white-space:nowrap">
              <span class="nodeLabel">
                +default boolean replace(K key, V oldValue, V newValue)
              </span>
            </div>
          </foreignObject>
          <foreignObject width="324.05" height="24" transform="translate(-241.575 364)">
            <div xmlns="http://www.w3.org/1999/xhtml" display="inline-block" style="white-space:nowrap">
              <span class="nodeLabel">
                +default void replaceAll(BiFunction function)
              </span>
            </div>
          </foreignObject>
          <foreignObject width="72.017" height="24" transform="translate(-241.575 392)">
            <div xmlns="http://www.w3.org/1999/xhtml" display="inline-block" style="white-space:nowrap">
              <span class="nodeLabel">
                +int size()
              </span>
            </div>
          </foreignObject>
          <foreignObject width="168.533" height="24" transform="translate(-241.575 420)">
            <div xmlns="http://www.w3.org/1999/xhtml" display="inline-block" style="white-space:nowrap">
              <span class="nodeLabel">
                +Collection&lt;V&gt; values()
              </span>
            </div>
          </foreignObject>
        </g>
      </g>
      <g id="classId-HashMap-97" class="node default">
        <path d="M218.109 1325h129.867v63H218.109z" class="outer title-state"/>
        <path d="M218.109 1361h129.866m-129.866 16h129.866" class="divider"/>
        <g class="label" transform="translate(283.042 1356.5)">
          <foreignObject width="0" height="0">
            <div xmlns="http://www.w3.org/1999/xhtml" display="inline-block" style="white-space:nowrap">
              <span class="nodeLabel"/>
            </div>
          </foreignObject>
          <foreignObject width="114.867" height="24" class="classTitle" transform="translate(-57.433 -24)">
            <div xmlns="http://www.w3.org/1999/xhtml" display="inline-block" style="white-space:nowrap">
              <span class="nodeLabel">
                HashMap&lt;K, V&gt;
              </span>
            </div>
          </foreignObject>
        </g>
      </g>
      <g id="classId-TreeMap-98" class="node default">
        <path d="M397.975 961h684.733v791H397.975z" class="outer title-state"/>
        <path d="M397.975 997h684.734m-684.734 16h684.734" class="divider"/>
        <g class="label" transform="translate(740.342 1356.5)">
          <foreignObject width="0" height="0">
            <div xmlns="http://www.w3.org/1999/xhtml" display="inline-block" style="white-space:nowrap">
              <span class="nodeLabel"/>
            </div>
          </foreignObject>
          <foreignObject width="112.433" height="24" class="classTitle" transform="translate(-56.217 -388)">
            <div xmlns="http://www.w3.org/1999/xhtml" display="inline-block" style="white-space:nowrap">
              <span class="nodeLabel">
                TreeMap&lt;K, V&gt;
              </span>
            </div>
          </foreignObject>
          <foreignObject width="192.35" height="24" transform="translate(-334.867 -336)">
            <div xmlns="http://www.w3.org/1999/xhtml" display="inline-block" style="white-space:nowrap">
              <span class="nodeLabel">
                +Comparator comparator()
              </span>
            </div>
          </foreignObject>
          <foreignObject width="145.517" height="24" transform="translate(-334.867 -308)">
            <div xmlns="http://www.w3.org/1999/xhtml" display="inline-block" style="white-space:nowrap">
              <span class="nodeLabel">
                +K ceilingKey(K key)
              </span>
            </div>
          </foreignObject>
          <foreignObject width="89.05" height="24" transform="translate(-334.867 -280)">
            <div xmlns="http://www.w3.org/1999/xhtml" display="inline-block" style="white-space:nowrap">
              <span class="nodeLabel">
                +K firstKey()
              </span>
            </div>
          </foreignObject>
          <foreignObject width="132.25" height="24" transform="translate(-334.867 -252)">
            <div xmlns="http://www.w3.org/1999/xhtml" display="inline-block" style="white-space:nowrap">
              <span class="nodeLabel">
                +K floorKey(K key)
              </span>
            </div>
          </foreignObject>
          <foreignObject width="143.283" height="24" transform="translate(-334.867 -224)">
            <div xmlns="http://www.w3.org/1999/xhtml" display="inline-block" style="white-space:nowrap">
              <span class="nodeLabel">
                +K higherKey(K key)
              </span>
            </div>
          </foreignObject>
          <foreignObject width="85.467" height="24" transform="translate(-334.867 -196)">
            <div xmlns="http://www.w3.org/1999/xhtml" display="inline-block" style="white-space:nowrap">
              <span class="nodeLabel">
                +K lastKey()
              </span>
            </div>
          </foreignObject>
          <foreignObject width="138.383" height="24" transform="translate(-334.867 -168)">
            <div xmlns="http://www.w3.org/1999/xhtml" display="inline-block" style="white-space:nowrap">
              <span class="nodeLabel">
                +K lowerKey(K key)
              </span>
            </div>
          </foreignObject>
          <foreignObject width="262.317" height="24" transform="translate(-334.867 -140)">
            <div xmlns="http://www.w3.org/1999/xhtml" display="inline-block" style="white-space:nowrap">
              <span class="nodeLabel">
                +Map.Entry&lt;K,V&gt; ceilingEntry(K key)
              </span>
            </div>
          </foreignObject>
          <foreignObject width="205.85" height="24" transform="translate(-334.867 -112)">
            <div xmlns="http://www.w3.org/1999/xhtml" display="inline-block" style="white-space:nowrap">
              <span class="nodeLabel">
                +Map.Entry&lt;K,V&gt; firstEntry()
              </span>
            </div>
          </foreignObject>
          <foreignObject width="249.05" height="24" transform="translate(-334.867 -84)">
            <div xmlns="http://www.w3.org/1999/xhtml" display="inline-block" style="white-space:nowrap">
              <span class="nodeLabel">
                +Map.Entry&lt;K,V&gt; floorEntry(K key)
              </span>
            </div>
          </foreignObject>
          <foreignObject width="260.083" height="24" transform="translate(-334.867 -56)">
            <div xmlns="http://www.w3.org/1999/xhtml" display="inline-block" style="white-space:nowrap">
              <span class="nodeLabel">
                +Map.Entry&lt;K,V&gt; higherEntry(K key)
              </span>
            </div>
          </foreignObject>
          <foreignObject width="202.267" height="24" transform="translate(-334.867 -28)">
            <div xmlns="http://www.w3.org/1999/xhtml" display="inline-block" style="white-space:nowrap">
              <span class="nodeLabel">
                +Map.Entry&lt;K,V&gt; lastEntry()
              </span>
            </div>
          </foreignObject>
          <foreignObject width="255.183" height="24" transform="translate(-334.867)">
            <div xmlns="http://www.w3.org/1999/xhtml" display="inline-block" style="white-space:nowrap">
              <span class="nodeLabel">
                +Map.Entry&lt;K,V&gt; lowerEntry(K key)
              </span>
            </div>
          </foreignObject>
          <foreignObject width="235.267" height="24" transform="translate(-334.867 28)">
            <div xmlns="http://www.w3.org/1999/xhtml" display="inline-block" style="white-space:nowrap">
              <span class="nodeLabel">
                +Map.Entry&lt;K,V&gt; pollFirstEntry()
              </span>
            </div>
          </foreignObject>
          <foreignObject width="232.583" height="24" transform="translate(-334.867 56)">
            <div xmlns="http://www.w3.org/1999/xhtml" display="inline-block" style="white-space:nowrap">
              <span class="nodeLabel">
                +Map.Entry&lt;K,V&gt; pollLastEntry()
              </span>
            </div>
          </foreignObject>
          <foreignObject width="273.183" height="24" transform="translate(-334.867 84)">
            <div xmlns="http://www.w3.org/1999/xhtml" display="inline-block" style="white-space:nowrap">
              <span class="nodeLabel">
                +NavigableMap&lt;K,V&gt; descendingMap()
              </span>
            </div>
          </foreignObject>
          <foreignObject width="415.05" height="24" transform="translate(-334.867 112)">
            <div xmlns="http://www.w3.org/1999/xhtml" display="inline-block" style="white-space:nowrap">
              <span class="nodeLabel">
                +NavigableMap&lt;K,V&gt; headMap(K toKey, boolean inclusive)
              </span>
            </div>
          </foreignObject>
          <foreignObject width="669.733" height="24" transform="translate(-334.867 140)">
            <div xmlns="http://www.w3.org/1999/xhtml" display="inline-block" style="white-space:nowrap">
              <span class="nodeLabel">
                +NavigableMap&lt;K,V&gt; subMap(K fromKey, boolean fromInclusive, K toKey, boolean toInclusive)
              </span>
            </div>
          </foreignObject>
          <foreignObject width="423.35" height="24" transform="translate(-334.867 168)">
            <div xmlns="http://www.w3.org/1999/xhtml" display="inline-block" style="white-space:nowrap">
              <span class="nodeLabel">
                +NavigableMap&lt;K,V&gt; tailMap(K fromKey, boolean inclusive)
              </span>
            </div>
          </foreignObject>
          <foreignObject width="271.467" height="24" transform="translate(-334.867 196)">
            <div xmlns="http://www.w3.org/1999/xhtml" display="inline-block" style="white-space:nowrap">
              <span class="nodeLabel">
                +NavigableSet&lt;K&gt; descendingKeySet()
              </span>
            </div>
          </foreignObject>
          <foreignObject width="260.017" height="24" transform="translate(-334.867 224)">
            <div xmlns="http://www.w3.org/1999/xhtml" display="inline-block" style="white-space:nowrap">
              <span class="nodeLabel">
                +NavigableSet&lt;K&gt; navigableKeySet()
              </span>
            </div>
          </foreignObject>
          <foreignObject width="259.167" height="24" transform="translate(-334.867 252)">
            <div xmlns="http://www.w3.org/1999/xhtml" display="inline-block" style="white-space:nowrap">
              <span class="nodeLabel">
                +SortedMap&lt;K,V&gt; headMap(K toKey)
              </span>
            </div>
          </foreignObject>
          <foreignObject width="330.633" height="24" transform="translate(-334.867 280)">
            <div xmlns="http://www.w3.org/1999/xhtml" display="inline-block" style="white-space:nowrap">
              <span class="nodeLabel">
                +SortedMap&lt;K,V&gt; subMap(K fromKey, K toKey)
              </span>
            </div>
          </foreignObject>
          <foreignObject width="267.467" height="24" transform="translate(-334.867 308)">
            <div xmlns="http://www.w3.org/1999/xhtml" display="inline-block" style="white-space:nowrap">
              <span class="nodeLabel">
                +SortedMap&lt;K,V&gt; tailMap(K fromKey)
              </span>
            </div>
          </foreignObject>
          <foreignObject width="145.25" height="24" transform="translate(-334.867 336)">
            <div xmlns="http://www.w3.org/1999/xhtml" display="inline-block" style="white-space:nowrap">
              <span class="nodeLabel">
                +V putFirst(K k, V v)
              </span>
            </div>
          </foreignObject>
          <foreignObject width="142.567" height="24" transform="translate(-334.867 364)">
            <div xmlns="http://www.w3.org/1999/xhtml" display="inline-block" style="white-space:nowrap">
              <span class="nodeLabel">
                +V putLast(K k, V v)
              </span>
            </div>
          </foreignObject>
        </g>
      </g>
    </g>
  </g>
</svg>
