<svg xmlns="http://www.w3.org/2000/svg" id="graph-div" width="100%" height="100%" aria-roledescription="classDiagram" style="max-width:100%" viewBox="0 0 1596.417 2435">
  <style>
    @import url(https://cdnjs.cloudflare.com/ajax/libs/font-awesome/6.5.0/css/all.min.css);
  </style>
  <style>
    #graph-div{fill:#333}#graph-div .edge-pattern-solid{stroke-dasharray:0}#graph-div .marker{fill:#333;stroke:#333}#graph-div,#graph-div svg{font-family:&quot;trebuchet ms&quot;,verdana,arial,sans-serif;font-size:16px}#graph-div .edgeLabel,#graph-div .nodeLabel{color:#131300}#graph-div .edgeLabel .label span{background:#ececff}#graph-div .classTitle{font-weight:bolder}#graph-div .node circle,#graph-div .node path{fill:#ececff;stroke:#9370db;stroke-width:1px}#graph-div .divider{stroke:#9370db;stroke-width:1}#graph-div .relation{stroke:#333;stroke-width:1;fill:none}#graph-div .composition,#graph-div .dependency{fill:#333!important;stroke:#333!important;stroke-width:1}#graph-div .aggregation,#graph-div .extension,#graph-div .lollipop{fill:transparent!important;stroke:#333!important;stroke-width:1}#graph-div .lollipop{fill:#ececff!important}#graph-div :root{--mermaid-font-family:&quot;trebuchet ms&quot;,verdana,arial,sans-serif}
  </style>
  <defs>
    <marker id="graph-div_classDiagram-aggregationStart" class="marker aggregation classDiagram" markerHeight="240" markerWidth="190" orient="auto" refX="18" refY="7">
      <path d="m18 7-9 6-8-6 8-6Z"/>
    </marker>
  </defs>
  <defs>
    <marker id="graph-div_classDiagram-aggregationEnd" class="marker aggregation classDiagram" markerHeight="28" markerWidth="20" orient="auto" refX="1" refY="7">
      <path d="m18 7-9 6-8-6 8-6Z"/>
    </marker>
  </defs>
  <defs>
    <marker id="graph-div_classDiagram-extensionStart" class="marker extension classDiagram" markerHeight="240" markerWidth="190" orient="auto" refX="18" refY="7">
      <path d="m1 7 17 6V1Z"/>
    </marker>
  </defs>
  <defs>
    <marker id="graph-div_classDiagram-extensionEnd" class="marker extension classDiagram" markerHeight="28" markerWidth="20" orient="auto" refX="1" refY="7">
      <path d="M1 1v12l17-6Z"/>
    </marker>
  </defs>
  <defs>
    <marker id="graph-div_classDiagram-compositionStart" class="marker composition classDiagram" markerHeight="240" markerWidth="190" orient="auto" refX="18" refY="7">
      <path d="m18 7-9 6-8-6 8-6Z"/>
    </marker>
  </defs>
  <defs>
    <marker id="graph-div_classDiagram-compositionEnd" class="marker composition classDiagram" markerHeight="28" markerWidth="20" orient="auto" refX="1" refY="7">
      <path d="m18 7-9 6-8-6 8-6Z"/>
    </marker>
  </defs>
  <defs>
    <marker id="graph-div_classDiagram-dependencyStart" class="marker dependency classDiagram" markerHeight="240" markerWidth="190" orient="auto" refX="6" refY="7">
      <path d="m5 7 4 6-8-6 8-6Z"/>
    </marker>
  </defs>
  <defs>
    <marker id="graph-div_classDiagram-dependencyEnd" class="marker dependency classDiagram" markerHeight="28" markerWidth="20" orient="auto" refX="13" refY="7">
      <path d="m18 7-9 6 5-6-5-6Z"/>
    </marker>
  </defs>
  <defs>
    <marker id="graph-div_classDiagram-lollipopStart" class="marker lollipop classDiagram" markerHeight="240" markerWidth="190" orient="auto" refX="13" refY="7">
      <circle cx="7" cy="7" r="6" fill="transparent" stroke="#000"/>
    </marker>
  </defs>
  <defs>
    <marker id="graph-div_classDiagram-lollipopEnd" class="marker lollipop classDiagram" markerHeight="240" markerWidth="190" orient="auto" refX="1" refY="7">
      <circle cx="7" cy="7" r="6" fill="transparent" stroke="#000"/>
    </marker>
  </defs>
  <g class="root">
    <g class="edgePaths">
      <path id="id1" fill="none" marker-start="url(#graph-div_classDiagram-extensionStart)" d="M537.708 201v32" class="edge-pattern-solid relation"/>
      <path id="id2" fill="none" marker-start="url(#graph-div_classDiagram-extensionStart)" d="m326.346 690.626-19.919 17.729c-19.918 17.729-59.756 53.187-79.675 75.083-19.919 21.895-19.919 30.229-19.919 34.395V822" class="edge-pattern-solid relation"/>
      <path id="id3" fill="none" marker-start="url(#graph-div_classDiagram-extensionStart)" d="M206.833 1519v200" class="edge-pattern-solid relation"/>
      <path id="id4" fill="none" marker-start="url(#graph-div_classDiagram-extensionStart)" d="M206.833 1828v368" class="edge-pattern-solid relation"/>
      <path id="id5" fill="none" marker-start="url(#graph-div_classDiagram-extensionStart)" d="m247.488 1824.935 19.964 29.678c19.963 29.677 59.891 89.032 99.977 150.876 40.086 61.844 80.33 126.178 100.452 158.344L488.003 2196" class="edge-pattern-solid relation"/>
      <path id="id6" fill="none" marker-start="url(#graph-div_classDiagram-extensionStart)" d="M527.708 1996v1.167c0 1.166 0 3.5-2.865 36.833-2.866 33.333-8.597 97.667-11.463 129.833L510.515 2196" class="edge-pattern-solid relation"/>
      <path id="id7" fill="none" marker-start="url(#graph-div_classDiagram-extensionStart)" d="m748.061 722.619 11.847 12.397c11.847 12.397 35.54 37.19 47.387 93.421 11.847 56.23 11.847 143.896 11.847 187.73V1060" class="edge-pattern-solid relation"/>
      <path id="id8" fill="none" marker-start="url(#graph-div_classDiagram-extensionStart)" d="M819.142 1281v438" class="edge-pattern-solid relation"/>
      <path id="id9" fill="none" marker-start="url(#graph-div_classDiagram-extensionStart)" d="m802.873 1827.427-7.565 29.262c-7.565 29.262-22.695 87.787-30.26 149.216-7.565 61.428-7.565 125.762-7.565 157.928V2196" class="edge-pattern-solid relation"/>
      <path id="id10" fill="none" marker-start="url(#graph-div_classDiagram-extensionStart)" d="m899.315 1811.762 54.068 31.873c54.068 31.873 162.205 95.619 216.274 131.659 54.068 36.039 54.068 44.373 54.068 48.539V2028" class="edge-pattern-solid relation"/>
      <path id="id11" fill="none" marker-start="url(#graph-div_classDiagram-extensionStart)" d="m527.946 789.99-.039 1.168c-.04 1.168-.119 3.505-.159 46.174-.04 42.668-.04 125.668-.04 167.168v41.5" class="edge-pattern-solid relation"/>
      <path id="id12" fill="none" marker-start="url(#graph-div_classDiagram-extensionStart)" d="M527.708 1295v256" class="edge-pattern-solid relation"/>
    </g>
    <g class="edgeLabels">
      <g class="edgeLabel">
        <foreignObject width="0" height="0" class="label">
          <div xmlns="http://www.w3.org/1999/xhtml" display="inline-block" style="white-space:nowrap">
            <span class="edgeLabel"/>
          </div>
        </foreignObject>
      </g>
      <g class="edgeLabel">
        <foreignObject width="0" height="0" class="label">
          <div xmlns="http://www.w3.org/1999/xhtml" display="inline-block" style="white-space:nowrap">
            <span class="edgeLabel"/>
          </div>
        </foreignObject>
      </g>
      <g class="edgeLabel">
        <foreignObject width="0" height="0" class="label">
          <div xmlns="http://www.w3.org/1999/xhtml" display="inline-block" style="white-space:nowrap">
            <span class="edgeLabel"/>
          </div>
        </foreignObject>
      </g>
      <g class="edgeLabel">
        <foreignObject width="0" height="0" class="label">
          <div xmlns="http://www.w3.org/1999/xhtml" display="inline-block" style="white-space:nowrap">
            <span class="edgeLabel"/>
          </div>
        </foreignObject>
      </g>
      <g class="edgeLabel">
        <foreignObject width="0" height="0" class="label">
          <div xmlns="http://www.w3.org/1999/xhtml" display="inline-block" style="white-space:nowrap">
            <span class="edgeLabel"/>
          </div>
        </foreignObject>
      </g>
      <g class="edgeLabel">
        <foreignObject width="0" height="0" class="label">
          <div xmlns="http://www.w3.org/1999/xhtml" display="inline-block" style="white-space:nowrap">
            <span class="edgeLabel"/>
          </div>
        </foreignObject>
      </g>
      <g class="edgeLabel">
        <foreignObject width="0" height="0" class="label">
          <div xmlns="http://www.w3.org/1999/xhtml" display="inline-block" style="white-space:nowrap">
            <span class="edgeLabel"/>
          </div>
        </foreignObject>
      </g>
      <g class="edgeLabel">
        <foreignObject width="0" height="0" class="label">
          <div xmlns="http://www.w3.org/1999/xhtml" display="inline-block" style="white-space:nowrap">
            <span class="edgeLabel"/>
          </div>
        </foreignObject>
      </g>
      <g class="edgeLabel">
        <foreignObject width="0" height="0" class="label">
          <div xmlns="http://www.w3.org/1999/xhtml" display="inline-block" style="white-space:nowrap">
            <span class="edgeLabel"/>
          </div>
        </foreignObject>
      </g>
      <g class="edgeLabel">
        <foreignObject width="0" height="0" class="label">
          <div xmlns="http://www.w3.org/1999/xhtml" display="inline-block" style="white-space:nowrap">
            <span class="edgeLabel"/>
          </div>
        </foreignObject>
      </g>
      <g class="edgeLabel">
        <foreignObject width="0" height="0" class="label">
          <div xmlns="http://www.w3.org/1999/xhtml" display="inline-block" style="white-space:nowrap">
            <span class="edgeLabel"/>
          </div>
        </foreignObject>
      </g>
      <g class="edgeLabel">
        <foreignObject width="0" height="0" class="label">
          <div xmlns="http://www.w3.org/1999/xhtml" display="inline-block" style="white-space:nowrap">
            <span class="edgeLabel"/>
          </div>
        </foreignObject>
      </g>
    </g>
    <g class="nodes">
      <g id="classId-Iterable-15269" class="node default">
        <path d="M347.091 8h381.233v175H347.091z" class="outer title-state"/>
        <path d="M347.091 72h381.234M347.091 88h381.234" class="divider"/>
        <g class="label" transform="translate(537.708 95.5)">
          <foreignObject width="82.233" height="24" transform="translate(-41.117 -80)">
            <div xmlns="http://www.w3.org/1999/xhtml" display="inline-block" style="white-space:nowrap">
              <span class="nodeLabel">
                «Interface»
              </span>
            </div>
          </foreignObject>
          <foreignObject width="86.617" height="24" class="classTitle" transform="translate(-43.308 -52)">
            <div xmlns="http://www.w3.org/1999/xhtml" display="inline-block" style="white-space:nowrap">
              <span class="nodeLabel">
                Iterable&lt;T&gt;
              </span>
            </div>
          </foreignObject>
          <foreignObject width="366.233" height="24" transform="translate(-183.117)">
            <div xmlns="http://www.w3.org/1999/xhtml" display="inline-block" style="white-space:nowrap">
              <span class="nodeLabel">
                +default void forEach(Consumer&lt;? super T&gt; action)
              </span>
            </div>
          </foreignObject>
          <foreignObject width="161.733" height="24" transform="translate(-183.117 28)">
            <div xmlns="http://www.w3.org/1999/xhtml" display="inline-block" style="white-space:nowrap">
              <span class="nodeLabel">
                +Iterator&lt;T&gt; iterator()
              </span>
            </div>
          </foreignObject>
          <foreignObject width="259.9" height="24" transform="translate(-183.117 56)">
            <div xmlns="http://www.w3.org/1999/xhtml" display="inline-block" style="white-space:nowrap">
              <span class="nodeLabel">
                +default Spliterator&lt;T&gt; spliterator()
              </span>
            </div>
          </foreignObject>
        </g>
      </g>
      <g id="classId-Object-15270" class="node default">
        <path d="M778.325 36h204.617v119H778.325z" class="outer title-state"/>
        <path d="M778.325 72h204.616M778.325 88h204.616" class="divider"/>
        <g class="label" transform="translate(880.633 95.5)">
          <foreignObject width="0" height="0">
            <div xmlns="http://www.w3.org/1999/xhtml" display="inline-block" style="white-space:nowrap">
              <span class="nodeLabel"/>
            </div>
          </foreignObject>
          <foreignObject width="50.15" height="24" class="classTitle" transform="translate(-25.075 -52)">
            <div xmlns="http://www.w3.org/1999/xhtml" display="inline-block" style="white-space:nowrap">
              <span class="nodeLabel">
                Object
              </span>
            </div>
          </foreignObject>
          <foreignObject width="189.617" height="24" transform="translate(-94.808)">
            <div xmlns="http://www.w3.org/1999/xhtml" display="inline-block" style="white-space:nowrap">
              <span class="nodeLabel">
                +boolean equals(Object o)
              </span>
            </div>
          </foreignObject>
          <foreignObject width="112.817" height="24" transform="translate(-94.808 28)">
            <div xmlns="http://www.w3.org/1999/xhtml" display="inline-block" style="white-space:nowrap">
              <span class="nodeLabel">
                +int hashCode()
              </span>
            </div>
          </foreignObject>
        </g>
      </g>
      <g id="classId-Collection-15271" class="node default">
        <path d="M339.791 233h395.833v539H339.791z" class="outer title-state"/>
        <path d="M339.791 297h395.834m-395.834 16h395.834" class="divider"/>
        <g class="label" transform="translate(537.708 502.5)">
          <foreignObject width="82.233" height="24" transform="translate(-41.117 -262)">
            <div xmlns="http://www.w3.org/1999/xhtml" display="inline-block" style="white-space:nowrap">
              <span class="nodeLabel">
                «Interface»
              </span>
            </div>
          </foreignObject>
          <foreignObject width="103.817" height="24" class="classTitle" transform="translate(-51.908 -234)">
            <div xmlns="http://www.w3.org/1999/xhtml" display="inline-block" style="white-space:nowrap">
              <span class="nodeLabel">
                Collection&lt;T&gt;
              </span>
            </div>
          </foreignObject>
          <foreignObject width="128.333" height="24" transform="translate(-190.417 -182)">
            <div xmlns="http://www.w3.org/1999/xhtml" display="inline-block" style="white-space:nowrap">
              <span class="nodeLabel">
                +boolean add(T t)
              </span>
            </div>
          </foreignObject>
          <foreignObject width="236.45" height="24" transform="translate(-190.417 -154)">
            <div xmlns="http://www.w3.org/1999/xhtml" display="inline-block" style="white-space:nowrap">
              <span class="nodeLabel">
                +boolean addAll(Collection&lt;T&gt; t)
              </span>
            </div>
          </foreignObject>
          <foreignObject width="90.85" height="24" transform="translate(-190.417 -126)">
            <div xmlns="http://www.w3.org/1999/xhtml" display="inline-block" style="white-space:nowrap">
              <span class="nodeLabel">
                +void clear()
              </span>
            </div>
          </foreignObject>
          <foreignObject width="203.417" height="24" transform="translate(-190.417 -98)">
            <div xmlns="http://www.w3.org/1999/xhtml" display="inline-block" style="white-space:nowrap">
              <span class="nodeLabel">
                +boolean contains(Object o)
              </span>
            </div>
          </foreignObject>
          <foreignObject width="268.183" height="24" transform="translate(-190.417 -70)">
            <div xmlns="http://www.w3.org/1999/xhtml" display="inline-block" style="white-space:nowrap">
              <span class="nodeLabel">
                +boolean containsAll(Collection&lt;?&gt; c)
              </span>
            </div>
          </foreignObject>
          <foreignObject width="137.7" height="24" transform="translate(-190.417 -42)">
            <div xmlns="http://www.w3.org/1999/xhtml" display="inline-block" style="white-space:nowrap">
              <span class="nodeLabel">
                +boolean isEmpty()
              </span>
            </div>
          </foreignObject>
          <foreignObject width="263.8" height="24" transform="translate(-190.417 -14)">
            <div xmlns="http://www.w3.org/1999/xhtml" display="inline-block" style="white-space:nowrap">
              <span class="nodeLabel">
                +default Stream&lt;T&gt; parallelStream()
              </span>
            </div>
          </foreignObject>
          <foreignObject width="197" height="24" transform="translate(-190.417 14)">
            <div xmlns="http://www.w3.org/1999/xhtml" display="inline-block" style="white-space:nowrap">
              <span class="nodeLabel">
                +boolean remove(Object o)
              </span>
            </div>
          </foreignObject>
          <foreignObject width="261.767" height="24" transform="translate(-190.417 42)">
            <div xmlns="http://www.w3.org/1999/xhtml" display="inline-block" style="white-space:nowrap">
              <span class="nodeLabel">
                +boolean removeAll(Collection&lt;?&gt; c)
              </span>
            </div>
          </foreignObject>
          <foreignObject width="335.383" height="24" transform="translate(-190.417 70)">
            <div xmlns="http://www.w3.org/1999/xhtml" display="inline-block" style="white-space:nowrap">
              <span class="nodeLabel">
                +boolean removeIf(Predicate&lt;? super T&gt; filter)
              </span>
            </div>
          </foreignObject>
          <foreignObject width="251.4" height="24" transform="translate(-190.417 98)">
            <div xmlns="http://www.w3.org/1999/xhtml" display="inline-block" style="white-space:nowrap">
              <span class="nodeLabel">
                +boolean retainAll(Collection&lt;?&gt; c)
              </span>
            </div>
          </foreignObject>
          <foreignObject width="72.017" height="24" transform="translate(-190.417 126)">
            <div xmlns="http://www.w3.org/1999/xhtml" display="inline-block" style="white-space:nowrap">
              <span class="nodeLabel">
                +int size()
              </span>
            </div>
          </foreignObject>
          <foreignObject width="207.767" height="24" transform="translate(-190.417 154)">
            <div xmlns="http://www.w3.org/1999/xhtml" display="inline-block" style="white-space:nowrap">
              <span class="nodeLabel">
                +default Stream&lt;T&gt; stream()
              </span>
            </div>
          </foreignObject>
          <foreignObject width="138.383" height="24" transform="translate(-190.417 182)">
            <div xmlns="http://www.w3.org/1999/xhtml" display="inline-block" style="white-space:nowrap">
              <span class="nodeLabel">
                +Object[] toArray()
              </span>
            </div>
          </foreignObject>
          <foreignObject width="380.833" height="24" transform="translate(-190.417 210)">
            <div xmlns="http://www.w3.org/1999/xhtml" display="inline-block" style="white-space:nowrap">
              <span class="nodeLabel">
                +default &lt;T&gt; T[] toArray(IntFunction&lt;T[]&gt; generator)
              </span>
            </div>
          </foreignObject>
          <foreignObject width="164.233" height="24" transform="translate(-190.417 238)">
            <div xmlns="http://www.w3.org/1999/xhtml" display="inline-block" style="white-space:nowrap">
              <span class="nodeLabel">
                +&lt;T&gt; T[] toArray(T[] a)
              </span>
            </div>
          </foreignObject>
        </g>
      </g>
      <g id="classId-List-15272" class="node default">
        <path d="M8 822h397.667v679H8z" class="outer title-state"/>
        <path d="M8 886h397.666M8 902h397.666" class="divider"/>
        <g class="label" transform="translate(206.833 1161.5)">
          <foreignObject width="82.233" height="24" transform="translate(-41.117 -332)">
            <div xmlns="http://www.w3.org/1999/xhtml" display="inline-block" style="white-space:nowrap">
              <span class="nodeLabel">
                «Interface»
              </span>
            </div>
          </foreignObject>
          <foreignObject width="55.4" height="24" class="classTitle" transform="translate(-27.7 -304)">
            <div xmlns="http://www.w3.org/1999/xhtml" display="inline-block" style="white-space:nowrap">
              <span class="nodeLabel">
                List&lt;T&gt;
              </span>
            </div>
          </foreignObject>
          <foreignObject width="190.167" height="24" transform="translate(-191.333 -252)">
            <div xmlns="http://www.w3.org/1999/xhtml" display="inline-block" style="white-space:nowrap">
              <span class="nodeLabel">
                +default void addFirst(T t)
              </span>
            </div>
          </foreignObject>
          <foreignObject width="187.483" height="24" transform="translate(-191.333 -224)">
            <div xmlns="http://www.w3.org/1999/xhtml" display="inline-block" style="white-space:nowrap">
              <span class="nodeLabel">
                +default void addLast(T t)
              </span>
            </div>
          </foreignObject>
          <foreignObject width="120.833" height="24" transform="translate(-191.333 -196)">
            <div xmlns="http://www.w3.org/1999/xhtml" display="inline-block" style="white-space:nowrap">
              <span class="nodeLabel">
                +T get(int index)
              </span>
            </div>
          </foreignObject>
          <foreignObject width="145.983" height="24" transform="translate(-191.333 -168)">
            <div xmlns="http://www.w3.org/1999/xhtml" display="inline-block" style="white-space:nowrap">
              <span class="nodeLabel">
                +default T getFirst()
              </span>
            </div>
          </foreignObject>
          <foreignObject width="143.3" height="24" transform="translate(-191.333 -140)">
            <div xmlns="http://www.w3.org/1999/xhtml" display="inline-block" style="white-space:nowrap">
              <span class="nodeLabel">
                +default T getLast()
              </span>
            </div>
          </foreignObject>
          <foreignObject width="162.283" height="24" transform="translate(-191.333 -112)">
            <div xmlns="http://www.w3.org/1999/xhtml" display="inline-block" style="white-space:nowrap">
              <span class="nodeLabel">
                +int indexOf(Object o)
              </span>
            </div>
          </foreignObject>
          <foreignObject width="188.117" height="24" transform="translate(-191.333 -84)">
            <div xmlns="http://www.w3.org/1999/xhtml" display="inline-block" style="white-space:nowrap">
              <span class="nodeLabel">
                +int lastIndexOf(Object o)
              </span>
            </div>
          </foreignObject>
          <foreignObject width="209.233" height="24" transform="translate(-191.333 -56)">
            <div xmlns="http://www.w3.org/1999/xhtml" display="inline-block" style="white-space:nowrap">
              <span class="nodeLabel">
                +ListIterator&lt;T&gt; listIterator()
              </span>
            </div>
          </foreignObject>
          <foreignObject width="272.7" height="24" transform="translate(-191.333 -28)">
            <div xmlns="http://www.w3.org/1999/xhtml" display="inline-block" style="white-space:nowrap">
              <span class="nodeLabel">
                +ListIterator&lt;T&gt; listIterator(int index)
              </span>
            </div>
          </foreignObject>
          <foreignObject width="151.1" height="24" transform="translate(-191.333)">
            <div xmlns="http://www.w3.org/1999/xhtml" display="inline-block" style="white-space:nowrap">
              <span class="nodeLabel">
                +T remove(int index)
              </span>
            </div>
          </foreignObject>
          <foreignObject width="176.25" height="24" transform="translate(-191.333 28)">
            <div xmlns="http://www.w3.org/1999/xhtml" display="inline-block" style="white-space:nowrap">
              <span class="nodeLabel">
                +default T removeFirst()
              </span>
            </div>
          </foreignObject>
          <foreignObject width="173.567" height="24" transform="translate(-191.333 56)">
            <div xmlns="http://www.w3.org/1999/xhtml" display="inline-block" style="white-space:nowrap">
              <span class="nodeLabel">
                +default T removeLast()
              </span>
            </div>
          </foreignObject>
          <foreignObject width="382.667" height="24" transform="translate(-191.333 84)">
            <div xmlns="http://www.w3.org/1999/xhtml" display="inline-block" style="white-space:nowrap">
              <span class="nodeLabel">
                +default void replaceAll(UnaryOperator&lt;T&gt; operator)
              </span>
            </div>
          </foreignObject>
          <foreignObject width="194.983" height="24" transform="translate(-191.333 112)">
            <div xmlns="http://www.w3.org/1999/xhtml" display="inline-block" style="white-space:nowrap">
              <span class="nodeLabel">
                +default List&lt;T&gt; reversed()
              </span>
            </div>
          </foreignObject>
          <foreignObject width="203.383" height="24" transform="translate(-191.333 140)">
            <div xmlns="http://www.w3.org/1999/xhtml" display="inline-block" style="white-space:nowrap">
              <span class="nodeLabel">
                +T set(int index, T element)
              </span>
            </div>
          </foreignObject>
          <foreignObject width="317.017" height="24" transform="translate(-191.333 168)">
            <div xmlns="http://www.w3.org/1999/xhtml" display="inline-block" style="white-space:nowrap">
              <span class="nodeLabel">
                +default void sort(Comparator&lt;? super T&gt; c)
              </span>
            </div>
          </foreignObject>
          <foreignObject width="312.5" height="24" transform="translate(-191.333 196)">
            <div xmlns="http://www.w3.org/1999/xhtml" display="inline-block" style="white-space:nowrap">
              <span class="nodeLabel">
                +List&lt;T&gt; subList(int fromIndex, int toIndex)
              </span>
            </div>
          </foreignObject>
          <foreignObject width="166.767" height="24" transform="translate(-191.333 224)">
            <div xmlns="http://www.w3.org/1999/xhtml" display="inline-block" style="white-space:nowrap">
              <span class="nodeLabel">
                +static &lt;T&gt; List&lt;T&gt; of()
              </span>
            </div>
          </foreignObject>
          <foreignObject width="195.6" height="24" transform="translate(-191.333 252)">
            <div xmlns="http://www.w3.org/1999/xhtml" display="inline-block" style="white-space:nowrap">
              <span class="nodeLabel">
                +static &lt;T&gt; List&lt;T&gt; of(T t1)
              </span>
            </div>
          </foreignObject>
          <foreignObject width="271.867" height="24" transform="translate(-191.333 280)">
            <div xmlns="http://www.w3.org/1999/xhtml" display="inline-block" style="white-space:nowrap">
              <span class="nodeLabel">
                +static &lt;T&gt; List&lt;T&gt; of(T t1, ..., T t10)
              </span>
            </div>
          </foreignObject>
          <foreignObject width="261.65" height="24" transform="translate(-191.333 308)">
            <div xmlns="http://www.w3.org/1999/xhtml" display="inline-block" style="white-space:nowrap">
              <span class="nodeLabel">
                +static &lt;T&gt; List&lt;T&gt; of(T... elements)
              </span>
            </div>
          </foreignObject>
        </g>
      </g>
      <g id="classId-AbstractList-15273" class="node default">
        <path d="M140.608 1719h132.45v91h-132.45z" class="outer title-state"/>
        <path d="M140.608 1783h132.45m-132.45 16h132.45" class="divider"/>
        <g class="label" transform="translate(206.833 1764.5)">
          <foreignObject width="76.833" height="24" transform="translate(-38.417 -38)">
            <div xmlns="http://www.w3.org/1999/xhtml" display="inline-block" style="white-space:nowrap">
              <span class="nodeLabel">
                «Abstract»
              </span>
            </div>
          </foreignObject>
          <foreignObject width="117.45" height="24" class="classTitle" transform="translate(-58.725 -10)">
            <div xmlns="http://www.w3.org/1999/xhtml" display="inline-block" style="white-space:nowrap">
              <span class="nodeLabel">
                AbstractList&lt;T&gt;
              </span>
            </div>
          </foreignObject>
        </g>
      </g>
      <g id="classId-ArrayList-15274" class="node default">
        <path d="M151.458 2196h110.75v63h-110.75z" class="outer title-state"/>
        <path d="M151.458 2232h110.75m-110.75 16h110.75" class="divider"/>
        <g class="label" transform="translate(206.833 2227.5)">
          <foreignObject width="0" height="0">
            <div xmlns="http://www.w3.org/1999/xhtml" display="inline-block" style="white-space:nowrap">
              <span class="nodeLabel"/>
            </div>
          </foreignObject>
          <foreignObject width="95.75" height="24" class="classTitle" transform="translate(-47.875 -24)">
            <div xmlns="http://www.w3.org/1999/xhtml" display="inline-block" style="white-space:nowrap">
              <span class="nodeLabel">
                ArrayList&lt;T&gt;
              </span>
            </div>
          </foreignObject>
        </g>
      </g>
      <g id="classId-LinkedList-15275" class="node default">
        <path d="M447.35 2196h120.717v63H447.35z" class="outer title-state"/>
        <path d="M447.35 2232h120.716m-120.716 16h120.716" class="divider"/>
        <g class="label" transform="translate(507.708 2227.5)">
          <foreignObject width="0" height="0">
            <div xmlns="http://www.w3.org/1999/xhtml" display="inline-block" style="white-space:nowrap">
              <span class="nodeLabel"/>
            </div>
          </foreignObject>
          <foreignObject width="105.717" height="24" class="classTitle" transform="translate(-52.858 -24)">
            <div xmlns="http://www.w3.org/1999/xhtml" display="inline-block" style="white-space:nowrap">
              <span class="nodeLabel">
                LinkedList&lt;T&gt;
              </span>
            </div>
          </foreignObject>
        </g>
      </g>
      <g id="classId-Set-15276" class="node default">
        <path d="M677.067 1060h284.15v203h-284.15z" class="outer title-state"/>
        <path d="M677.067 1124h284.15m-284.15 16h284.15" class="divider"/>
        <g class="label" transform="translate(819.142 1161.5)">
          <foreignObject width="82.233" height="24" transform="translate(-41.117 -94)">
            <div xmlns="http://www.w3.org/1999/xhtml" display="inline-block" style="white-space:nowrap">
              <span class="nodeLabel">
                «Interface»
              </span>
            </div>
          </foreignObject>
          <foreignObject width="52.283" height="24" class="classTitle" transform="translate(-26.142 -66)">
            <div xmlns="http://www.w3.org/1999/xhtml" display="inline-block" style="white-space:nowrap">
              <span class="nodeLabel">
                Set&lt;T&gt;
              </span>
            </div>
          </foreignObject>
          <foreignObject width="164.05" height="24" transform="translate(-134.575 -14)">
            <div xmlns="http://www.w3.org/1999/xhtml" display="inline-block" style="white-space:nowrap">
              <span class="nodeLabel">
                +static &lt;T&gt; Set&lt;T&gt; of()
              </span>
            </div>
          </foreignObject>
          <foreignObject width="192.883" height="24" transform="translate(-134.575 14)">
            <div xmlns="http://www.w3.org/1999/xhtml" display="inline-block" style="white-space:nowrap">
              <span class="nodeLabel">
                +static &lt;T&gt; Set&lt;T&gt; of(T t1)
              </span>
            </div>
          </foreignObject>
          <foreignObject width="269.15" height="24" transform="translate(-134.575 42)">
            <div xmlns="http://www.w3.org/1999/xhtml" display="inline-block" style="white-space:nowrap">
              <span class="nodeLabel">
                +static &lt;T&gt; Set&lt;T&gt; of(T t1, ..., T t10)
              </span>
            </div>
          </foreignObject>
          <foreignObject width="258.933" height="24" transform="translate(-134.575 70)">
            <div xmlns="http://www.w3.org/1999/xhtml" display="inline-block" style="white-space:nowrap">
              <span class="nodeLabel">
                +static &lt;T&gt; Set&lt;T&gt; of(T... elements)
              </span>
            </div>
          </foreignObject>
        </g>
      </g>
      <g id="classId-AbstractSet-15277" class="node default">
        <path d="M754.475 1719h129.333v91H754.475z" class="outer title-state"/>
        <path d="M754.475 1783h129.334m-129.334 16h129.334" class="divider"/>
        <g class="label" transform="translate(819.142 1764.5)">
          <foreignObject width="76.833" height="24" transform="translate(-38.417 -38)">
            <div xmlns="http://www.w3.org/1999/xhtml" display="inline-block" style="white-space:nowrap">
              <span class="nodeLabel">
                «Abstract»
              </span>
            </div>
          </foreignObject>
          <foreignObject width="114.333" height="24" class="classTitle" transform="translate(-57.167 -10)">
            <div xmlns="http://www.w3.org/1999/xhtml" display="inline-block" style="white-space:nowrap">
              <span class="nodeLabel">
                AbstractSet&lt;T&gt;
              </span>
            </div>
          </foreignObject>
        </g>
      </g>
      <g id="classId-HashSet-15278" class="node default">
        <path d="M705.933 2196h103.1v63h-103.1z" class="outer title-state"/>
        <path d="M705.933 2232h103.1m-103.1 16h103.1" class="divider"/>
        <g class="label" transform="translate(757.483 2227.5)">
          <foreignObject width="0" height="0">
            <div xmlns="http://www.w3.org/1999/xhtml" display="inline-block" style="white-space:nowrap">
              <span class="nodeLabel"/>
            </div>
          </foreignObject>
          <foreignObject width="88.1" height="24" class="classTitle" transform="translate(-44.05 -24)">
            <div xmlns="http://www.w3.org/1999/xhtml" display="inline-block" style="white-space:nowrap">
              <span class="nodeLabel">
                HashSet&lt;T&gt;
              </span>
            </div>
          </foreignObject>
        </g>
      </g>
      <g id="classId-TreeSet-15279" class="node default">
        <path d="M859.033 2028h729.383v399H859.033z" class="outer title-state"/>
        <path d="M859.033 2064h729.384m-729.384 16h729.384" class="divider"/>
        <g class="label" transform="translate(1223.725 2227.5)">
          <foreignObject width="0" height="0">
            <div xmlns="http://www.w3.org/1999/xhtml" display="inline-block" style="white-space:nowrap">
              <span class="nodeLabel"/>
            </div>
          </foreignObject>
          <foreignObject width="85.667" height="24" class="classTitle" transform="translate(-42.833 -192)">
            <div xmlns="http://www.w3.org/1999/xhtml" display="inline-block" style="white-space:nowrap">
              <span class="nodeLabel">
                TreeSet&lt;T&gt;
              </span>
            </div>
          </foreignObject>
          <foreignObject width="101.983" height="24" transform="translate(-357.192 -140)">
            <div xmlns="http://www.w3.org/1999/xhtml" display="inline-block" style="white-space:nowrap">
              <span class="nodeLabel">
                +T ceiling(T t)
              </span>
            </div>
          </foreignObject>
          <foreignObject width="241.417" height="24" transform="translate(-357.192 -112)">
            <div xmlns="http://www.w3.org/1999/xhtml" display="inline-block" style="white-space:nowrap">
              <span class="nodeLabel">
                +Iterator&lt;T&gt; descendingIterator()
              </span>
            </div>
          </foreignObject>
          <foreignObject width="246.2" height="24" transform="translate(-357.192 -84)">
            <div xmlns="http://www.w3.org/1999/xhtml" display="inline-block" style="white-space:nowrap">
              <span class="nodeLabel">
                +NavigableSet&lt;T&gt; descendingSet()
              </span>
            </div>
          </foreignObject>
          <foreignObject width="266.05" height="24" transform="translate(-357.192 -56)">
            <div xmlns="http://www.w3.org/1999/xhtml" display="inline-block" style="white-space:nowrap">
              <span class="nodeLabel">
                +SortedSet&lt;T&gt; headSet(T toElement)
              </span>
            </div>
          </foreignObject>
          <foreignObject width="423.883" height="24" transform="translate(-357.192 -28)">
            <div xmlns="http://www.w3.org/1999/xhtml" display="inline-block" style="white-space:nowrap">
              <span class="nodeLabel">
                +NavigableSet&lt;T&gt; headSet(T toElement, boolean inclusive)
              </span>
            </div>
          </foreignObject>
          <foreignObject width="99.75" height="24" transform="translate(-357.192)">
            <div xmlns="http://www.w3.org/1999/xhtml" display="inline-block" style="white-space:nowrap">
              <span class="nodeLabel">
                +T higher(T t)
              </span>
            </div>
          </foreignObject>
          <foreignObject width="93.2" height="24" transform="translate(-357.192 28)">
            <div xmlns="http://www.w3.org/1999/xhtml" display="inline-block" style="white-space:nowrap">
              <span class="nodeLabel">
                +T pollFirst()
              </span>
            </div>
          </foreignObject>
          <foreignObject width="90.517" height="24" transform="translate(-357.192 56)">
            <div xmlns="http://www.w3.org/1999/xhtml" display="inline-block" style="white-space:nowrap">
              <span class="nodeLabel">
                +T pollLast()
              </span>
            </div>
          </foreignObject>
          <foreignObject width="714.383" height="24" transform="translate(-357.192 84)">
            <div xmlns="http://www.w3.org/1999/xhtml" display="inline-block" style="white-space:nowrap">
              <span class="nodeLabel">
                +NavigableSet&lt;T&gt; subSet(T fromElement, boolean fromInclusive, T toElement, boolean toInclusive)
              </span>
            </div>
          </foreignObject>
          <foreignObject width="373.333" height="24" transform="translate(-357.192 112)">
            <div xmlns="http://www.w3.org/1999/xhtml" display="inline-block" style="white-space:nowrap">
              <span class="nodeLabel">
                +SortedSet&lt;T&gt; subSet(T fromElement, T toElement)
              </span>
            </div>
          </foreignObject>
          <foreignObject width="274.35" height="24" transform="translate(-357.192 140)">
            <div xmlns="http://www.w3.org/1999/xhtml" display="inline-block" style="white-space:nowrap">
              <span class="nodeLabel">
                +SortedSet&lt;T&gt; tailSet(T fromElement)
              </span>
            </div>
          </foreignObject>
          <foreignObject width="432.183" height="24" transform="translate(-357.192 168)">
            <div xmlns="http://www.w3.org/1999/xhtml" display="inline-block" style="white-space:nowrap">
              <span class="nodeLabel">
                +NavigableSet&lt;T&gt; tailSet(T fromElement, boolean inclusive)
              </span>
            </div>
          </foreignObject>
        </g>
      </g>
      <g id="classId-Queue-15280" class="node default">
        <path d="M455.666 1046H599.75v231H455.666z" class="outer title-state"/>
        <path d="M455.666 1110H599.75m-144.084 16H599.75" class="divider"/>
        <g class="label" transform="translate(527.708 1161.5)">
          <foreignObject width="82.233" height="24" transform="translate(-41.117 -108)">
            <div xmlns="http://www.w3.org/1999/xhtml" display="inline-block" style="white-space:nowrap">
              <span class="nodeLabel">
                «Interface»
              </span>
            </div>
          </foreignObject>
          <foreignObject width="77.2" height="24" class="classTitle" transform="translate(-38.6 -80)">
            <div xmlns="http://www.w3.org/1999/xhtml" display="inline-block" style="white-space:nowrap">
              <span class="nodeLabel">
                Queue&lt;T&gt;
              </span>
            </div>
          </foreignObject>
          <foreignObject width="85.167" height="24" transform="translate(-64.542 -28)">
            <div xmlns="http://www.w3.org/1999/xhtml" display="inline-block" style="white-space:nowrap">
              <span class="nodeLabel">
                T element()
              </span>
            </div>
          </foreignObject>
          <foreignObject width="129.083" height="24" transform="translate(-64.542)">
            <div xmlns="http://www.w3.org/1999/xhtml" display="inline-block" style="white-space:nowrap">
              <span class="nodeLabel">
                boolean offer(T t)
              </span>
            </div>
          </foreignObject>
          <foreignObject width="60.317" height="24" transform="translate(-64.542 28)">
            <div xmlns="http://www.w3.org/1999/xhtml" display="inline-block" style="white-space:nowrap">
              <span class="nodeLabel">
                T peek()
              </span>
            </div>
          </foreignObject>
          <foreignObject width="52.8" height="24" transform="translate(-64.542 56)">
            <div xmlns="http://www.w3.org/1999/xhtml" display="inline-block" style="white-space:nowrap">
              <span class="nodeLabel">
                T poll()
              </span>
            </div>
          </foreignObject>
          <foreignObject width="79.25" height="24" transform="translate(-64.542 84)">
            <div xmlns="http://www.w3.org/1999/xhtml" display="inline-block" style="white-space:nowrap">
              <span class="nodeLabel">
                T remove()
              </span>
            </div>
          </foreignObject>
        </g>
      </g>
      <g id="classId-Deque-15281" class="node default">
        <path d="M364.733 1551h325.95v427h-325.95z" class="outer title-state"/>
        <path d="M364.733 1615h325.95m-325.95 16h325.95" class="divider"/>
        <g class="label" transform="translate(527.708 1764.5)">
          <foreignObject width="82.233" height="24" transform="translate(-41.117 -206)">
            <div xmlns="http://www.w3.org/1999/xhtml" display="inline-block" style="white-space:nowrap">
              <span class="nodeLabel">
                «Interface»
              </span>
            </div>
          </foreignObject>
          <foreignObject width="76.033" height="24" class="classTitle" transform="translate(-38.017 -178)">
            <div xmlns="http://www.w3.org/1999/xhtml" display="inline-block" style="white-space:nowrap">
              <span class="nodeLabel">
                Deque&lt;T&gt;
              </span>
            </div>
          </foreignObject>
          <foreignObject width="241.417" height="24" transform="translate(-155.475 -126)">
            <div xmlns="http://www.w3.org/1999/xhtml" display="inline-block" style="white-space:nowrap">
              <span class="nodeLabel">
                +Iterator&lt;T&gt; descendingIterator()
              </span>
            </div>
          </foreignObject>
          <foreignObject width="169.483" height="24" transform="translate(-155.475 -98)">
            <div xmlns="http://www.w3.org/1999/xhtml" display="inline-block" style="white-space:nowrap">
              <span class="nodeLabel">
                +boolean offerFirst(T t)
              </span>
            </div>
          </foreignObject>
          <foreignObject width="166.8" height="24" transform="translate(-155.475 -70)">
            <div xmlns="http://www.w3.org/1999/xhtml" display="inline-block" style="white-space:nowrap">
              <span class="nodeLabel">
                +boolean offerLast(T t)
              </span>
            </div>
          </foreignObject>
          <foreignObject width="100.717" height="24" transform="translate(-155.475 -42)">
            <div xmlns="http://www.w3.org/1999/xhtml" display="inline-block" style="white-space:nowrap">
              <span class="nodeLabel">
                +T peekFirst()
              </span>
            </div>
          </foreignObject>
          <foreignObject width="98.033" height="24" transform="translate(-155.475 -14)">
            <div xmlns="http://www.w3.org/1999/xhtml" display="inline-block" style="white-space:nowrap">
              <span class="nodeLabel">
                +T peekLast()
              </span>
            </div>
          </foreignObject>
          <foreignObject width="93.2" height="24" transform="translate(-155.475 14)">
            <div xmlns="http://www.w3.org/1999/xhtml" display="inline-block" style="white-space:nowrap">
              <span class="nodeLabel">
                +T pollFirst()
              </span>
            </div>
          </foreignObject>
          <foreignObject width="90.517" height="24" transform="translate(-155.475 42)">
            <div xmlns="http://www.w3.org/1999/xhtml" display="inline-block" style="white-space:nowrap">
              <span class="nodeLabel">
                +T pollLast()
              </span>
            </div>
          </foreignObject>
          <foreignObject width="60.667" height="24" transform="translate(-155.475 70)">
            <div xmlns="http://www.w3.org/1999/xhtml" display="inline-block" style="white-space:nowrap">
              <span class="nodeLabel">
                +T pop()
              </span>
            </div>
          </foreignObject>
          <foreignObject width="108.217" height="24" transform="translate(-155.475 98)">
            <div xmlns="http://www.w3.org/1999/xhtml" display="inline-block" style="white-space:nowrap">
              <span class="nodeLabel">
                +void push(T t)
              </span>
            </div>
          </foreignObject>
          <foreignObject width="310.95" height="24" transform="translate(-155.475 126)">
            <div xmlns="http://www.w3.org/1999/xhtml" display="inline-block" style="white-space:nowrap">
              <span class="nodeLabel">
                +boolean removeFirstOccurrence(Object o)
              </span>
            </div>
          </foreignObject>
          <foreignObject width="308.267" height="24" transform="translate(-155.475 154)">
            <div xmlns="http://www.w3.org/1999/xhtml" display="inline-block" style="white-space:nowrap">
              <span class="nodeLabel">
                +boolean removeLastOccurrence(Object o)
              </span>
            </div>
          </foreignObject>
          <foreignObject width="214.433" height="24" transform="translate(-155.475 182)">
            <div xmlns="http://www.w3.org/1999/xhtml" display="inline-block" style="white-space:nowrap">
              <span class="nodeLabel">
                +default Deque&lt;T&gt; reversed()
              </span>
            </div>
          </foreignObject>
        </g>
      </g>
    </g>
  </g>
</svg>
